%YAML 1.1
%TAG !u! tag:unity3d.com,2011:
--- !u!114 &11400000
MonoBehaviour:
  m_ObjectHideFlags: 0
  m_CorrespondingSourceObject: {fileID: 0}
  m_PrefabInstance: {fileID: 0}
  m_PrefabAsset: {fileID: 0}
  m_GameObject: {fileID: 0}
  m_Enabled: 1
  m_EditorHideFlags: 0
  m_Script: {fileID: 11500000, guid: 0f5415fc71523a54b9b45453fd8297c7, type: 3}
  m_Name: HomeBaseLevel2
  m_EditorClassIdentifier: 
  health: 500
  upgradeCostWood: 500
  upgradeCostStone: 500
