%YAML 1.1
%TAG !u! tag:unity3d.com,2011:
--- !u!114 &11400000
MonoBehaviour:
  m_ObjectHideFlags: 0
  m_CorrespondingSourceObject: {fileID: 0}
  m_PrefabInstance: {fileID: 0}
  m_PrefabAsset: {fileID: 0}
  m_GameObject: {fileID: 0}
  m_Enabled: 1
  m_EditorHideFlags: 0
  m_Script: {fileID: 11500000, guid: 40266a7dd5774234d9f282a6f8a28ab2, type: 3}
  m_Name: CannonLevel2
  m_EditorClassIdentifier: 
  health: 250
  upgradeCostWood: 150
  upgradeCostStone: 225
  buildCostWood: -1
  buildCostStone: -1
  damage: 12
  radius: 4
  fireTime: 0.9
