%YAML 1.1
%TAG !u! tag:unity3d.com,2011:
--- !u!114 &11400000
MonoBehaviour:
  m_ObjectHideFlags: 0
  m_CorrespondingSourceObject: {fileID: 0}
  m_PrefabInstance: {fileID: 0}
  m_PrefabAsset: {fileID: 0}
  m_GameObject: {fileID: 0}
  m_Enabled: 1
  m_EditorHideFlags: 0
  m_Script: {fileID: 11500000, guid: c6c5812f1900ff740862e8236c2d8d17, type: 3}
  m_Name: LumberjackLevel3
  m_EditorClassIdentifier: 
  health: 350
  upgradeCostWood: -1
  upgradeCostStone: -1
  buildCostWood: -1
  buildCostStone: -1
  woodHarvestRate: 4
